Project_1_SimpleALU/simulation/qsim/MyProcessor.msim.vcd
$comment
	File created using the following command:
		vcd file MyProcessor.msim.vcd -direction
$end
$date
	Tue Sep 10 23:47:24 2024
$end
$version
	ModelSim Version 10.5b
$end
$timescale
	1ps
$end

$scope module alu_vlg_vec_tst $end
$var reg 5 ! ctrl_ALUopcode [4:0] $end
$var reg 5 " ctrl_shiftamt [4:0] $end
$var reg 32 # data_operandA [31:0] $end
$var reg 32 $ data_operandB [31:0] $end
$var wire 1 % data_result [31] $end
$var wire 1 & data_result [30] $end
$var wire 1 ' data_result [29] $end
$var wire 1 ( data_result [28] $end
$var wire 1 ) data_result [27] $end
$var wire 1 * data_result [26] $end
$var wire 1 + data_result [25] $end
$var wire 1 , data_result [24] $end
$var wire 1 - data_result [23] $end
$var wire 1 . data_result [22] $end
$var wire 1 / data_result [21] $end
$var wire 1 0 data_result [20] $end
$var wire 1 1 data_result [19] $end
$var wire 1 2 data_result [18] $end
$var wire 1 3 data_result [17] $end
$var wire 1 4 data_result [16] $end
$var wire 1 5 data_result [15] $end
$var wire 1 6 data_result [14] $end
$var wire 1 7 data_result [13] $end
$var wire 1 8 data_result [12] $end
$var wire 1 9 data_result [11] $end
$var wire 1 : data_result [10] $end
$var wire 1 ; data_result [9] $end
$var wire 1 < data_result [8] $end
$var wire 1 = data_result [7] $end
$var wire 1 > data_result [6] $end
$var wire 1 ? data_result [5] $end
$var wire 1 @ data_result [4] $end
$var wire 1 A data_result [3] $end
$var wire 1 B data_result [2] $end
$var wire 1 C data_result [1] $end
$var wire 1 D data_result [0] $end
$var wire 1 E isLessThan $end
$var wire 1 F isNotEqual $end
$var wire 1 G overflow $end

$scope module i1 $end
$var wire 1 H gnd $end
$var wire 1 I vcc $end
$var wire 1 J unknown $end
$var tri1 1 K devclrn $end
$var tri1 1 L devpor $end
$var tri1 1 M devoe $end
$var wire 1 N ctrl_ALUopcode[1]~input_o $end
$var wire 1 O ctrl_ALUopcode[2]~input_o $end
$var wire 1 P ctrl_ALUopcode[3]~input_o $end
$var wire 1 Q ctrl_ALUopcode[4]~input_o $end
$var wire 1 R ctrl_shiftamt[0]~input_o $end
$var wire 1 S ctrl_shiftamt[1]~input_o $end
$var wire 1 T ctrl_shiftamt[2]~input_o $end
$var wire 1 U ctrl_shiftamt[3]~input_o $end
$var wire 1 V ctrl_shiftamt[4]~input_o $end
$var wire 1 W data_result[0]~output_o $end
$var wire 1 X data_result[1]~output_o $end
$var wire 1 Y data_result[2]~output_o $end
$var wire 1 Z data_result[3]~output_o $end
$var wire 1 [ data_result[4]~output_o $end
$var wire 1 \ data_result[5]~output_o $end
$var wire 1 ] data_result[6]~output_o $end
$var wire 1 ^ data_result[7]~output_o $end
$var wire 1 _ data_result[8]~output_o $end
$var wire 1 ` data_result[9]~output_o $end
$var wire 1 a data_result[10]~output_o $end
$var wire 1 b data_result[11]~output_o $end
$var wire 1 c data_result[12]~output_o $end
$var wire 1 d data_result[13]~output_o $end
$var wire 1 e data_result[14]~output_o $end
$var wire 1 f data_result[15]~output_o $end
$var wire 1 g data_result[16]~output_o $end
$var wire 1 h data_result[17]~output_o $end
$var wire 1 i data_result[18]~output_o $end
$var wire 1 j data_result[19]~output_o $end
$var wire 1 k data_result[20]~output_o $end
$var wire 1 l data_result[21]~output_o $end
$var wire 1 m data_result[22]~output_o $end
$var wire 1 n data_result[23]~output_o $end
$var wire 1 o data_result[24]~output_o $end
$var wire 1 p data_result[25]~output_o $end
$var wire 1 q data_result[26]~output_o $end
$var wire 1 r data_result[27]~output_o $end
$var wire 1 s data_result[28]~output_o $end
$var wire 1 t data_result[29]~output_o $end
$var wire 1 u data_result[30]~output_o $end
$var wire 1 v data_result[31]~output_o $end
$var wire 1 w isNotEqual~output_o $end
$var wire 1 x isLessThan~output_o $end
$var wire 1 y overflow~output_o $end
$var wire 1 z data_operandB[0]~input_o $end
$var wire 1 { data_operandA[0]~input_o $end
$var wire 1 | adder_32|adder0|FA0|G2~0_combout $end
$var wire 1 } data_operandB[1]~input_o $end
$var wire 1 ~ ctrl_ALUopcode[0]~input_o $end
$var wire 1 !! adder_32|adder0|FA0|G5~0_combout $end
$var wire 1 "! data_operandA[1]~input_o $end
$var wire 1 #! adder_32|adder0|FA1|G2~combout $end
$var wire 1 $! data_operandB[2]~input_o $end
$var wire 1 %! data_operandA[2]~input_o $end
$var wire 1 &! adder_32|adder0|FA1|G5~0_combout $end
$var wire 1 '! adder_32|adder0|FA2|G2~0_combout $end
$var wire 1 (! adder_32|adder0|FA2|G5~0_combout $end
$var wire 1 )! data_operandA[3]~input_o $end
$var wire 1 *! data_operandB[3]~input_o $end
$var wire 1 +! adder_32|adder0|FA3|G2~0_combout $end
$var wire 1 ,! adder_32|adder0|FA3|G5~0_combout $end
$var wire 1 -! data_operandB[4]~input_o $end
$var wire 1 .! data_operandA[4]~input_o $end
$var wire 1 /! adder_32|adder0|FA4|G2~0_combout $end
$var wire 1 0! data_operandA[5]~input_o $end
$var wire 1 1! data_operandB[5]~input_o $end
$var wire 1 2! adder_32|adder0|FA4|G5~0_combout $end
$var wire 1 3! adder_32|adder0|FA5|G2~0_combout $end
$var wire 1 4! data_operandA[6]~input_o $end
$var wire 1 5! data_operandB[6]~input_o $end
$var wire 1 6! adder_32|adder0|FA5|G5~0_combout $end
$var wire 1 7! adder_32|adder0|FA6|G2~0_combout $end
$var wire 1 8! data_operandB[7]~input_o $end
$var wire 1 9! adder_32|adder0|FA6|G5~0_combout $end
$var wire 1 :! data_operandA[7]~input_o $end
$var wire 1 ;! adder_32|adder0|FA7|G2~0_combout $end
$var wire 1 <! data_operandB[8]~input_o $end
$var wire 1 =! adder_32|adder0|FA7|G5~0_combout $end
$var wire 1 >! data_operandA[8]~input_o $end
$var wire 1 ?! adder_32|adder1|s[0]~9_combout $end
$var wire 1 @! data_operandB[9]~input_o $end
$var wire 1 A! data_operandA[9]~input_o $end
$var wire 1 B! adder_32|adder1|RCA_1|FA1|G2~0_combout $end
$var wire 1 C! wb_res[8]~0_combout $end
$var wire 1 D! adder_32|adder1|s[1]~2_combout $end
$var wire 1 E! wb_res[9]~1_combout $end
$var wire 1 F! adder_32|adder1|RCA_1|FA1|G5~0_combout $end
$var wire 1 G! data_operandB[10]~input_o $end
$var wire 1 H! data_operandA[10]~input_o $end
$var wire 1 I! adder_32|adder1|RCA_1|FA2|G2~0_combout $end
$var wire 1 J! adder_32|adder1|RCA_0|FA0|G4~combout $end
$var wire 1 K! adder_32|adder1|RCA_0|FA1|G5~0_combout $end
$var wire 1 L! adder_32|adder1|s[2]~3_combout $end
$var wire 1 M! data_operandB[11]~input_o $end
$var wire 1 N! data_operandA[11]~input_o $end
$var wire 1 O! adder_32|adder1|RCA_1|FA3|G2~0_combout $end
$var wire 1 P! adder_32|adder1|RCA_1|FA2|G5~0_combout $end
$var wire 1 Q! adder_32|adder1|RCA_0|FA2|G5~0_combout $end
$var wire 1 R! adder_32|adder1|s[3]~4_combout $end
$var wire 1 S! data_operandA[12]~input_o $end
$var wire 1 T! data_operandB[12]~input_o $end
$var wire 1 U! adder_32|adder1|RCA_1|FA4|G2~0_combout $end
$var wire 1 V! adder_32|adder1|RCA_0|FA3|G5~0_combout $end
$var wire 1 W! adder_32|adder1|RCA_1|FA3|G5~0_combout $end
$var wire 1 X! adder_32|adder1|s[4]~5_combout $end
$var wire 1 Y! data_operandA[13]~input_o $end
$var wire 1 Z! data_operandB[13]~input_o $end
$var wire 1 [! adder_32|adder1|RCA_1|FA5|G2~0_combout $end
$var wire 1 \! adder_32|adder1|RCA_1|FA4|G5~0_combout $end
$var wire 1 ]! adder_32|adder1|RCA_0|FA4|G5~0_combout $end
$var wire 1 ^! adder_32|adder1|s[5]~6_combout $end
$var wire 1 _! adder_32|adder1|RCA_0|FA5|G5~0_combout $end
$var wire 1 `! adder_32|adder1|RCA_1|FA5|G5~0_combout $end
$var wire 1 a! data_operandA[14]~input_o $end
$var wire 1 b! data_operandB[14]~input_o $end
$var wire 1 c! adder_32|adder1|RCA_1|FA6|G2~0_combout $end
$var wire 1 d! adder_32|adder1|s[6]~7_combout $end
$var wire 1 e! data_operandA[15]~input_o $end
$var wire 1 f! data_operandB[15]~input_o $end
$var wire 1 g! adder_32|adder1|RCA_1|FA7|G2~0_combout $end
$var wire 1 h! adder_32|adder1|RCA_1|FA6|G5~0_combout $end
$var wire 1 i! adder_32|adder1|RCA_0|FA6|G5~0_combout $end
$var wire 1 j! adder_32|adder1|s[7]~8_combout $end
$var wire 1 k! data_operandA[16]~input_o $end
$var wire 1 l! adder_32|adder1|cout~0_combout $end
$var wire 1 m! adder_32|adder1|cout~1_combout $end
$var wire 1 n! data_operandB[16]~input_o $end
$var wire 1 o! adder_32|adder2|s[0]~9_combout $end
$var wire 1 p! data_operandA[17]~input_o $end
$var wire 1 q! data_operandB[17]~input_o $end
$var wire 1 r! adder_32|adder2|RCA_1|FA1|G2~0_combout $end
$var wire 1 s! wb_res[16]~2_combout $end
$var wire 1 t! adder_32|adder2|s[1]~2_combout $end
$var wire 1 u! data_operandA[18]~input_o $end
$var wire 1 v! data_operandB[18]~input_o $end
$var wire 1 w! adder_32|adder2|RCA_1|FA2|G2~0_combout $end
$var wire 1 x! wb_res[17]~3_combout $end
$var wire 1 y! adder_32|adder2|RCA_1|FA1|G5~0_combout $end
$var wire 1 z! adder_32|adder2|RCA_0|FA0|G4~combout $end
$var wire 1 {! adder_32|adder2|RCA_0|FA1|G5~0_combout $end
$var wire 1 |! adder_32|adder2|s[2]~3_combout $end
$var wire 1 }! data_operandA[19]~input_o $end
$var wire 1 ~! data_operandB[19]~input_o $end
$var wire 1 !" adder_32|adder2|RCA_1|FA3|G2~0_combout $end
$var wire 1 "" adder_32|adder2|RCA_1|FA2|G5~0_combout $end
$var wire 1 #" adder_32|adder2|RCA_0|FA2|G5~0_combout $end
$var wire 1 $" adder_32|adder2|s[3]~4_combout $end
$var wire 1 %" adder_32|adder2|RCA_1|FA3|G5~0_combout $end
$var wire 1 &" adder_32|adder2|RCA_0|FA3|G5~0_combout $end
$var wire 1 '" data_operandA[20]~input_o $end
$var wire 1 (" data_operandB[20]~input_o $end
$var wire 1 )" adder_32|adder2|RCA_1|FA4|G2~0_combout $end
$var wire 1 *" adder_32|adder2|s[4]~5_combout $end
$var wire 1 +" adder_32|adder2|RCA_0|FA4|G5~0_combout $end
$var wire 1 ," data_operandB[21]~input_o $end
$var wire 1 -" data_operandA[21]~input_o $end
$var wire 1 ." adder_32|adder2|RCA_1|FA5|G2~0_combout $end
$var wire 1 /" adder_32|adder2|RCA_1|FA4|G5~0_combout $end
$var wire 1 0" adder_32|adder2|s[5]~6_combout $end
$var wire 1 1" adder_32|adder2|RCA_1|FA5|G5~0_combout $end
$var wire 1 2" data_operandA[22]~input_o $end
$var wire 1 3" data_operandB[22]~input_o $end
$var wire 1 4" adder_32|adder2|RCA_1|FA6|G2~0_combout $end
$var wire 1 5" adder_32|adder2|RCA_0|FA5|G5~0_combout $end
$var wire 1 6" adder_32|adder2|s[6]~7_combout $end
$var wire 1 7" adder_32|adder2|RCA_1|FA6|G5~0_combout $end
$var wire 1 8" adder_32|adder2|RCA_0|FA6|G5~0_combout $end
$var wire 1 9" data_operandA[23]~input_o $end
$var wire 1 :" data_operandB[23]~input_o $end
$var wire 1 ;" adder_32|adder2|RCA_1|FA7|G2~0_combout $end
$var wire 1 <" adder_32|adder2|s[7]~8_combout $end
$var wire 1 =" adder_32|adder2|cout~0_combout $end
$var wire 1 >" adder_32|adder2|cout~1_combout $end
$var wire 1 ?" data_operandA[24]~input_o $end
$var wire 1 @" data_operandB[24]~input_o $end
$var wire 1 A" adder_32|adder3|s[0]~9_combout $end
$var wire 1 B" data_operandA[25]~input_o $end
$var wire 1 C" data_operandB[25]~input_o $end
$var wire 1 D" adder_32|adder3|RCA_1|FA1|G2~0_combout $end
$var wire 1 E" wb_res[24]~4_combout $end
$var wire 1 F" adder_32|adder3|s[1]~2_combout $end
$var wire 1 G" wb_res[25]~5_combout $end
$var wire 1 H" adder_32|adder3|RCA_1|FA1|G5~0_combout $end
$var wire 1 I" data_operandA[26]~input_o $end
$var wire 1 J" data_operandB[26]~input_o $end
$var wire 1 K" adder_32|adder3|RCA_1|FA2|G2~0_combout $end
$var wire 1 L" adder_32|adder3|RCA_0|FA0|G4~combout $end
$var wire 1 M" adder_32|adder3|RCA_0|FA1|G5~0_combout $end
$var wire 1 N" adder_32|adder3|s[2]~3_combout $end
$var wire 1 O" adder_32|adder3|RCA_1|FA2|G5~0_combout $end
$var wire 1 P" data_operandB[27]~input_o $end
$var wire 1 Q" data_operandA[27]~input_o $end
$var wire 1 R" adder_32|adder3|RCA_1|FA3|G2~0_combout $end
$var wire 1 S" adder_32|adder3|RCA_0|FA2|G5~0_combout $end
$var wire 1 T" adder_32|adder3|s[3]~4_combout $end
$var wire 1 U" adder_32|adder3|RCA_0|FA3|G5~0_combout $end
$var wire 1 V" adder_32|adder3|RCA_1|FA3|G5~0_combout $end
$var wire 1 W" data_operandB[28]~input_o $end
$var wire 1 X" data_operandA[28]~input_o $end
$var wire 1 Y" adder_32|adder3|RCA_1|FA4|G2~0_combout $end
$var wire 1 Z" adder_32|adder3|s[4]~5_combout $end
$var wire 1 [" adder_32|adder3|RCA_1|FA4|G5~0_combout $end
$var wire 1 \" adder_32|adder3|RCA_0|FA4|G5~0_combout $end
$var wire 1 ]" data_operandA[29]~input_o $end
$var wire 1 ^" data_operandB[29]~input_o $end
$var wire 1 _" adder_32|adder3|RCA_1|FA5|G2~0_combout $end
$var wire 1 `" adder_32|adder3|s[5]~6_combout $end
$var wire 1 a" adder_32|adder3|RCA_0|FA5|G5~0_combout $end
$var wire 1 b" data_operandB[30]~input_o $end
$var wire 1 c" data_operandA[30]~input_o $end
$var wire 1 d" adder_32|adder3|RCA_1|FA6|G2~0_combout $end
$var wire 1 e" adder_32|adder3|RCA_1|FA5|G5~0_combout $end
$var wire 1 f" adder_32|adder3|s[6]~7_combout $end
$var wire 1 g" adder_32|adder3|RCA_1|FA6|G5~0_combout $end
$var wire 1 h" data_operandB[31]~input_o $end
$var wire 1 i" data_operandA[31]~input_o $end
$var wire 1 j" adder_32|adder3|RCA_1|FA7|G2~0_combout $end
$var wire 1 k" adder_32|adder3|RCA_0|FA6|G5~0_combout $end
$var wire 1 l" adder_32|adder3|s[7]~8_combout $end
$var wire 1 m" adder_32|adder3|overflow~0_combout $end
$var wire 1 n" adder_32|adder3|overflow~1_combout $end
$upscope $end
$upscope $end
$enddefinitions $end
#0
$dumpvars
b0 !
b0 "
b10000000000000000000011011000010 #
b101010001011 $
1D
0C
1B
1A
0@
0?
1>
0=
1<
0;
0:
09
18
07
06
05
04
03
02
01
00
0/
0.
0-
0,
0+
0*
0)
0(
0'
0&
1%
0E
0F
0G
0H
1I
xJ
1K
1L
1M
0N
0O
0P
0Q
0R
0S
0T
0U
0V
1W
0X
1Y
1Z
0[
0\
1]
0^
1_
0`
0a
0b
1c
0d
0e
0f
0g
0h
0i
0j
0k
0l
0m
0n
0o
0p
0q
0r
0s
0t
0u
1v
0w
0x
0y
1z
0{
1|
1}
0~
0!!
1"!
0#!
0$!
0%!
1&!
1'!
0(!
0)!
1*!
1+!
0,!
0-!
0.!
0/!
00!
01!
02!
03!
14!
05!
06!
17!
18!
09!
1:!
0;!
0<!
1=!
0>!
1?!
1@!
1A!
0B!
0C!
0D!
1E!
1F!
0G!
1H!
1I!
0J!
1K!
0L!
1M!
0N!
1O!
1P!
1Q!
0R!
0S!
0T!
0U!
1V!
1W!
1X!
0Y!
0Z!
0[!
0\!
0]!
0^!
0_!
0`!
0a!
0b!
0c!
0d!
0e!
0f!
0g!
0h!
0i!
0j!
0k!
0l!
0m!
0n!
0o!
0p!
0q!
0r!
0s!
0t!
0u!
0v!
0w!
0x!
0y!
0z!
0{!
0|!
0}!
0~!
0!"
0""
0#"
0$"
0%"
0&"
0'"
0("
0)"
0*"
0+"
0,"
0-"
0."
0/"
00"
01"
02"
03"
04"
05"
06"
07"
08"
09"
0:"
0;"
0<"
0="
0>"
0?"
0@"
0A"
0B"
0C"
0D"
0E"
0F"
0G"
0H"
0I"
0J"
0K"
0L"
0M"
0N"
0O"
0P"
0Q"
0R"
0S"
0T"
0U"
0V"
0W"
0X"
0Y"
0Z"
0["
0\"
0]"
0^"
0_"
0`"
0a"
0b"
0c"
0d"
0e"
0f"
0g"
0h"
1i"
1j"
0k"
1l"
0m"
0n"
$end
#50000
b10000000000010000000011011000010 #
b10000000000010100000011011000010 #
b10000000000010101000011011000010 #
b10000000000010101000111011000010 #
b10000000000010101000111111000010 #
b10000000000010101000111111100010 #
b10000000000010101000111111110010 #
b10000000000010101000111111110011 #
1{
1.!
10!
1>!
1N!
1e!
1p!
1}!
1!!
0O!
1g!
1r!
1!"
0|
1/!
13!
1D!
0?!
0_
1`
1\
1[
0W
0D
1@
1?
1;
0<
1#!
1R!
1j!
1t!
1$"
1j
1h
1f
1b
1X
1C
19
15
13
11
#100000
b10101000111111110011 #
b10101000110111110011 #
b10101000110111110001 #
b10000000000000000101010001011 $
b10000100000000000101010001011 $
b10000110000000000101010001011 $
b10000110000100000101010001011 $
b10000110000100100101010001011 $
b10000110000100100001010001011 $
b10000110000100100011010001011 $
b10000110000100100010010001011 $
b10000110000100100010000001011 $
b10000110000100100010001001011 $
b10000110000100100010001101011 $
b10000110000100100010001111011 $
b10000110000100100010001111010 $
b101000110111110001 #
b1000110111110001 #
b110111110001 #
b10111110001 #
b10011110001 #
b10011010001 #
b10011010000 #
0z
1-!
11!
15!
08!
0@!
1G!
0M!
1b!
1q!
13"
1:"
1W"
0{
0"!
00!
0>!
0A!
0N!
0e!
0p!
0}!
0i"
0!!
12!
19!
0=!
0K!
0E!
0I!
0W!
0V!
1c!
1x!
14"
1;"
1Y"
0F!
0g!
0!"
0j"
0/!
07!
1;!
0#!
0D!
1?!
1_
0`
0X
1^
0]
0[
0&!
16!
1=!
0@
0>
1=
0C
0;
1<
1#!
03!
0;!
0j!
1d!
0X!
0?!
16"
1<"
1Z"
0$"
0l"
0v
0j
1s
1n
1m
0_
0c
1e
0f
0^
0\
1X
1C
0?
0=
05
16
08
0<
1.
1-
1(
01
0%
0'!
17!
1?!
1_
1]
0Y
0B
1>
1<
#150000
b1000000000000000000010011010000 #
b1000100000000000000010011010000 #
b1000110000000000000010011010000 #
b1000111000000000000010011010000 #
b1000111100000000000010011010000 #
b1000111110000000000010011010000 #
b1000111111000000000010011010000 #
b1000111111000010000010011010000 #
b1000111111000010100010011010000 #
b1000111111000010110010011010000 #
b1000111111000010110010010010000 #
b1000111111000010110010010011000 #
b1000111111000010110010010001000 #
b1000111111010010110010010001000 #
b1000111111010110110010010001000 #
b1000111111010111110010010001000 #
b1000111111010111110010010001001 #
1{
1)!
0.!
04!
1Y!
1a!
1e!
1k!
1p!
1}!
1-"
12"
19"
1?"
1B"
1I"
1c"
1,!
02!
1[!
1i!
1h!
0c!
1g!
1y!
1{!
0r!
1!"
1."
18"
17"
04"
1>"
0;"
1H"
1D"
1K"
1d"
1|
0+!
1/!
07!
1o!
1A"
1o
1g
0]
1[
0Z
1W
12!
06!
1l!
1="
1O"
1D
0A
1@
0>
14
1,
0/!
13!
1^!
0d!
1|!
0t!
1$"
10"
06"
1f"
0A"
0o
1u
0m
1l
1j
0h
1i
0e
1d
1\
0[
16!
09!
1m!
0@
1?
17
06
12
03
11
1/
0.
1&
0,
03!
17!
1T"
1r
1]
0\
19!
0=!
0?
1>
1)
07!
1;!
1t!
0o!
0g
1h
1^
0]
1=!
0>
1=
13
04
0;!
0?!
0_
0^
0=
0<
1?!
1_
1<
#200000
b1 !
b1000111111010111110000010001001 #
b10100110000100100010001111010 $
b10110110000100100010001111010 $
b10110110100100100010001111010 $
b10110110100100101010001111010 $
b10110110100100101010001110010 $
b10110110100100101010001110110 $
b11000111111010111110000010001001 #
b10110010100100101010001110110 $
b10110000100100101010001110110 $
b10110000100100001010001110110 $
b10110000100100001110001110110 $
b10110000100100001111001110110 $
b10110000100100001111000110110 $
b10110000100100001111000100110 $
b10110000100100001111000100111 $
b11000111111010111110100010001001 #
b11000111111010111110100110001001 #
b11000111111010111110100110101001 #
b10000111111010111110100110101001 #
b10000011111010111110100110101001 #
b10000001111010111110100110101001 #
b10000000111010111110100110101001 #
b10000000011010111110100110101001 #
b10000000001010111110100110101001 #
b10000000000010111110100110101001 #
b10000000000010101110100110101001 #
b10000000000010101010100110101001 #
b10000000000010101000100110101001 #
b10000000000010101000100111101001 #
b10000000000000101000100111101001 #
b10000000000000001000100111101001 #
b10000000000000000000100111101001 #
1z
1$!
0*!
0-!
05!
1@!
1M!
1T!
0b!
1("
03"
0:"
1C"
1J"
10!
14!
1>!
0H!
1N!
0Y!
0a!
0e!
0k!
0p!
0}!
0-"
02"
09"
0?"
0B"
0I"
0c"
1i"
1~
1!!
1W!
1V!
1O!
0i!
0h!
1c!
08"
07"
14"
1;"
0D"
0O"
0K"
1J!
0Q!
0P!
0y!
0{!
0H"
1_"
0Y"
1V"
1R"
1E"
1#"
1""
0x!
1w!
1s!
1C!
0|
17!
1D!
0t!
1F"
1n"
1;!
0#!
0X
1^
1y
1p
0h
1`
1]
0W
0l!
0="
0V"
0V!
0W!
0""
0#"
1&"
1%"
0D
1>
1;
03
1+
1G
1=
0C
1#!
1X!
1j!
1d!
16"
1`"
0$"
1t!
1h
0j
1t
1m
1e
1f
1c
1X
0m!
0>"
0%"
0&"
1C
18
15
16
1.
1'
01
13
0Z"
0X!
1$"
1*"
1k
1j
0c
0s
0(
08
11
10
0*"
0t!
1o!
0F"
1A"
1o
0p
1g
0h
0k
00
03
14
0+
1,
#250000
b10010000000000000000100111101001 #
b10010000000100000000100111101001 #
b10010000000100000001100111101001 #
b10010000000100000001100101101001 #
b10010000000100000001101101101001 #
b10010000000100000001101101101011 #
b10010000000100000001101101100011 #
b10010000000100000001101101100010 #
b10010000000100000001001101100010 #
b11010000000100000001001101100010 #
b11010100000100000001001101100010 #
b11010100100100000001001101100010 #
b11010100100100010001001101100010 #
b11010100100110010001001101100010 #
0{
1"!
0)!
0:!
1A!
0N!
1S!
1k!
1}!
1'"
19"
1I"
1X"
1c"
0!!
1&!
0,!
1K!
1F!
1B!
0O!
1U!
1z!
1&"
1%"
0!"
1)"
1>"
0;"
1K"
1Y"
1k"
1g"
0d"
1|
0#!
1+!
0;!
1t!
0o!
0g
1h
0^
1Z
0X
1W
0&!
02!
1+"
1/"
1m"
1D
0C
1A
0=
13
04
1#!
1'!
1/!
1L!
0D!
0R!
1X!
0$"
1l"
0f"
1Z"
1N"
1F"
0A"
0<"
0n
0o
1p
1q
1s
0u
1v
0j
1c
0b
0`
1a
1[
1Y
1X
06!
15"
11"
1C
1B
1@
1:
0;
09
18
01
1%
0&
1(
1*
1+
0,
0-
0'!
13!
00"
0n"
0y
0l
1\
0Y
18"
17"
0B
1?
0/
0G
07!
06"
0m
0]
1="
0>
0.
1<"
1n
1-
#300000
b11110100100110010001001101100010 #
b11110100100110010001001101100110 #
b10111000100100001111000100111 $
b10111000101100001111000100111 $
b10111000101100001111000100101 $
b10111000101100001101000100101 $
b11110100100110010001001101110110 #
b11110100100110010001011101110110 #
b10101000101100001101000100101 $
b10101000001100001101000100101 $
b10101000001100000101000100101 $
b10101100001100000101000100101 $
b10101100001100000001000100101 $
b10101100001100000000000100101 $
b10101100001100000000001100101 $
b10101100001100000000001110101 $
b11110100100110010001011001110110 #
b11110101100110010001011001110110 #
b11110101101110010001011001110110 #
b11110101101110010101011001110110 #
b11110101101110110101011001110110 #
b11110101101110111101011001110110 #
b11110101101010111101011001110110 #
b11110101101010111101010001110110 #
b11110101101010111101010001110100 #
b11110101101010111101010001111100 #
b11110101101010111101010001111101 #
b10110101101010111101010001111101 #
b10110101101010101101010001111101 #
0}
1-!
15!
0@!
0G!
0M!
0T!
1v!
0("
1:"
1@"
0C"
1{
0"!
1%!
1)!
1.!
0>!
0A!
1H!
1a!
1e!
0k!
1p!
0'"
1-"
1?"
1]"
0c"
09!
1E!
1Q!
1P!
1O!
1]!
1\!
0U!
0w!
1;"
0E"
1G"
1D"
1!!
1,!
0J!
0F!
1i!
1h!
0c!
1m!
0g!
0z!
1y!
1{!
1r!
0."
1e"
1a"
0_"
0k"
0g"
1d"
17!
0|
1'!
0+!
0?!
0t!
1o!
1g
0h
0_
0Z
1Y
0W
1]
0=!
1F!
1V!
1W!
1_!
1`!
1H"
1&!
12!
0K!
1l!
0{!
1g"
1k"
0m"
1>
0D
1B
0A
0<
03
14
1;!
0^!
0X!
0<"
0F"
0#!
0/!
0L!
0d!
10"
0o!
0`"
0l"
0v
0t
0g
1l
0e
0a
0[
0X
0p
0n
0c
0d
1^
1O"
1(!
16!
1m"
1=
07
08
0-
0+
0C
0@
0:
06
1/
04
0'
0%
1d!
1X!
1D!
1?!
0N"
0'!
03!
1l"
1n"
1y
1v
0\
0Y
0q
1_
1`
1c
1e
1V"
19!
16
18
1;
1<
0*
0B
0?
1%
1G
0T"
1+!
07!
0n"
0y
0]
1Z
0r
1["
1=!
0)
1A
0>
0G
0Z"
0;!
0^
0s
0(
0=
1`"
1L!
0D!
0?!
0_
0`
1a
1t
1'
1:
0;
0<
#350000
b10110101101011101101010001111101 #
b10110101101011101101010001011101 #
b10110111101011101101010001011101 #
b10110111101011101101010000011101 #
b10110111101011101101110000011101 #
b10110111001011101101110000011101 #
b10110111001011101101110000001101 #
b10110111001011101101100000001101 #
b10110110001011101101100000001101 #
b10110110001011101001100000001101 #
b10110110001111101001100000001101 #
b10110110001111101001101000001101 #
b10110110001111101001101000000101 #
b10110110001111101001101000000100 #
b10110110001111111001101000000100 #
0{
0)!
0.!
00!
04!
1A!
0H!
1N!
0a!
1k!
1u!
1'"
09"
0?"
1B"
0!!
02!
06!
09!
1K!
0B!
0Q!
1I!
0O!
1c!
1z!
1""
1w!
0)"
0>"
0;"
1M"
0D"
1|
0+!
1/!
13!
17!
1o!
1F"
1A"
1o
1p
1g
1]
1\
1[
0Z
1W
0&!
0=!
1Q!
1{!
1S"
1D
0A
1@
1?
1>
14
1+
1,
1#!
03!
07!
1;!
0L!
1D!
1R!
0d!
1$"
0|!
1*"
0`"
1Z"
1T"
0F"
0A"
1<"
1n
0o
0p
1r
1s
0t
1k
0i
1j
0e
1b
1`
0a
1^
0]
0\
1X
0(!
1#"
1U"
1C
0?
0>
1=
0:
1;
19
06
11
02
10
0'
1(
1)
0+
0,
1-
1'!
0D!
1?!
0T"
0r
1_
0`
1Y
0,!
1\"
1B
0;
1<
0)
1+!
0Z"
0s
1Z
1A
0(
0/!
1`"
1t
0[
0@
1'
#400000
b10111110001111111001101000000100 #
b10010101100001100000000001110101 $
b10010101100011100000000001110101 $
b10010101100011110000000001110101 $
b10010101100011111000000001110101 $
b10010101100011111000000101110101 $
b10000101100011111000000101110101 $
b10000101100011011000000101110101 $
b10000101100011011000000111110101 $
b0 !
b10000001100011011000000111110101 $
b10000001100011011000000111111101 $
b10000001100011011000000111111001 $
b10000001100011011100000111111001 $
b10111110001111111011101000000100 #
b10111110001111111010101000000100 #
b10111110001111111010101010000100 #
b10111010001111111010101010000100 #
b10111010001101111010101010000100 #
b10011010001101111010101010000100 #
b10011010001101111010101010000000 #
b10000001100011011100010111111001 $
b10000011100011011100010111111001 $
b10000011100111011100010111111001 $
b10000011100111011100110111111001 $
b10000011100111011100111111111001 $
b10000011100111011100111111101001 $
b10011010001101111010101110000000 #
b10011010001101111010101110000010 #
b10011010001100111010101110000010 #
b10011010001100111010101110100010 #
b10011010001100111010101111100010 #
b10011010001100111010001111100010 #
b10011010001100111010001111110010 #
b10011010001100111010011111110010 #
b10011011001100111010011111110010 #
b10011011001000111010011111110010 #
b10011011001000111010011111111010 #
b10011011001000111010011111111011 #
0~
0$!
1*!
0-!
18!
1<!
1@!
1G!
1M!
1b!
1f!
1n!
0q!
1~!
1("
1C"
0J"
0W"
1h"
1{
1"!
0%!
1)!
1.!
10!
14!
1:!
1>!
1H!
0N!
0S!
1Y!
0u!
0}!
0'"
1?"
0I"
1Q"
0]"
0k"
0g"
0e"
0d"
0a"
0S"
0O"
1L"
0K"
1E"
1>"
1;"
08"
07"
04"
1."
1)"
1!"
0]!
0\!
1O!
1J!
0I!
1=!
19!
16!
1,!
1!!
0?!
0;!
1/!
0+!
0'!
0|
1D!
1`
0W
0Y
0Z
1[
0^
0_
0m"
0U"
0V"
0="
0_!
0`!
12!
1&!
0<
0=
1@
0A
0B
0D
1;
0l"
1T"
1N"
1F"
1A"
16"
00"
0*"
0$"
1^!
0R!
1L!
1?!
1;!
17!
0/!
0#!
0X
0[
1]
1^
1_
1a
0b
1d
0j
0k
0l
1m
1o
1p
1q
1r
0v
0\"
0["
0>"
0i!
0h!
0%
1)
1*
1+
1,
1.
0/
00
01
17
09
1:
1<
1=
1>
0@
0C
1n"
1Z"
1d!
13!
1'!
1Y
1\
1e
1s
1y
0l!
1G
1(
16
1?
1B
0`"
0A"
0j!
0f
0o
0t
0'
0,
05
